%YAML 1.1
%TAG !u! tag:unity3d.com,2011:
--- !u!78 &1
TagManager:
  serializedVersion: 2
  tags:
  - player
  - level
  - end
  - gPoint
  - sPoint
  - wall
  - coin
  - enemy
  - bg
  layers:
  - Default
  - TransparentFX
  - Ignore Raycast
  - 
  - Water
  - UI
  - 
  - 
  - 
  - 
  - 
  - 
  - 
  - 
  - 
  - 
  - 
  - 
  - 
  - 
  - 
  - 
  - 
  - 
  - 
  - 
  - 
  - 
  - 
  - 
  - 
  - 
  m_SortingLayers:
  - name: Backgroud
    uniqueID: 588585935
    locked: 0
  - name: Default
    uniqueID: 0
    locked: 0
  - name: floor
    uniqueID: 2609230287
    locked: 0
